DATA 607 Assignment 2
…
# Let' set base column names (that are R safe)
names(survey) <- c('RespondentID', 'CollectorID', 'StartDate', 'EndDate', 'IPAddress', 'EmailAddress', 'FirstName', 'LastName', 'CustomData1', 'SpidermanFarFromHome', 'HobbsAndShaw', 'LionKing2019', 'AnnabelleComeHome', 'ToyStory4', 'MetersDown47', 'Gender', 'Age')

Cleanup CSV data-prep for DB

# Remove a few unnecessary columns
survey <- survey %>% select(-IPAddress, -EmailAddress, -FirstName, -LastName, -CustomData1)
survey <- survey[2:nrow(survey),]

survey

## # A tibble: 21 x 12
##    RespondentID CollectorID StartDate EndDate SpidermanFarFro HobbsAndShaw
##           <dbl>       <dbl> <chr>     <chr>   <chr>            <chr>       
##  1  10976555523   245709500 09/07/20 09/07/ Decent Movie     I didn't se
##  2  10972842969   245715358 09/05/20 09/05/ I didn't see it  I didn't se
##  3  10972794947   245715358 09/05/20 09/05/ I didn't see it  I didn't se
##  4  10972751462   245715358 09/05/20 09/05/ I didn't see it  I didn't se
##  5  10972471453   245715358 09/05/20 09/05/ I Don't have an I Don't hav
##  6  10971873184   245715358 09/05/20 09/05/ Not Good         I didn't se
##  7  10971861372   245715358 09/05/20 09/05/ I didn't see it  I didn't se
##  8  10971809011   245715358 09/05/20 09/05/ Best Movie Ever! Decent Movie
##  9  10971398086   245709500 09/05/20 09/05/ I didn't see it  I didn't se
## 10  10971350360   245715358 09/05/20 09/05/ Great Movie      I didn't se
## #  with 11 more rows, and 6 more variables: LionKing2019 <chr>,
## #   AnnabelleComeHome <chr>, ToyStory4 <chr>, MetersDown47 <chr>,
## #   Gender <chr>, Age <chr>
…
# Cache off our SQL statement in case we need to troubleshoot
write(query, 'sql/insert_data.sql')

Load Data for Analaysis

Read responses from DB

# Load the list of movies (we need this to map MovieName's and MovieID's)
sql <- "SELECT * FROM responses;"
res <- dbSendQuery(con, sql)

survey <- as_tibble((dbFetch(res)))
survey

## # A tibble: 21 x 12
##    RespondentID CollectorID StartDate EndDate SpidermanFarFro HobbsAndShaw
##    <chr>        <chr>       <chr>     <chr>   <chr>            <chr>       
##  1 10970180147  245709500   2019-04- 2019-0 Great Movie      Decent Movie
##  2 10970192077  245709500   2019-04- 2019-0 Decent Movie     Decent Movie
##  3 10970285008  245709500   2019-04- 2019-0 Decent Movie     I didn't se
##  4 10970920112  245715358   2019-05- 2019-0 Great Movie      Great Movie 
##  5 10971077610  245709500   2019-05- 2019-0 Great Movie      Decent Movie
##  6 10971094944  245709500   2019-05- 2019-0 Decent Movie     I didn't se
##  7 10971112419  245709500   2019-05- 2019-0 I didn't see it  I didn't se
##  8 10971157469  245709500   2019-05- 2019-0 I didn't see it  I didn't se
##  9 10971160987  245709500   2019-05- 2019-0 I didn't see it  I didn't se
## 10 10971322807  245715358   2019-05- 2019-0 I didn't see it  I didn't se
## #  with 11 more rows, and 6 more variables: LionKing2019 <chr>,
## #   AnnabelleComeHome <chr>, ToyStory4 <chr>, MetersDown47 <chr>,
## #   Gender <chr>, Age <chr>
…
# Convert our movie review ranks into an ordinal factor
survey$SpidermanFarFromHome <- factor(survey$SpidermanFarFromHome, levels=response_options$Response, ordered=TRUE)
survey$HobbsAndShaw <- factor(survey$HobbsAndShaw, levels=response_options$Response, ordered=TRUE)
survey$LionKing2019 <- factor(survey$LionKing2019, levels=response_options$Response, ordered=TRUE)
survey$AnnabelleComeHome <- factor(survey$AnnabelleComeHome, levels=response_options$Response, ordered=TRUE)
survey$ToyStory4 <- factor(survey$ToyStory4, levels=response_options$Response, ordered=TRUE)
survey$MetersDown47 <- factor(survey$MetersDown47, levels=response_options$Response, ordered=TRUE)
survey$Gender <- factor(survey$Gender)

# Convert our ages (charater) into an ordinal factor
survey$Age <- factor(survey$Age, levels=age_options$AgeBucket, ordered=TRUE)

survey

## # A tibble: 21 x 12
##    RespondentID CollectorID StartDate           EndDate            
##    <chr>        <fct>       <dttm>              <dttm>             
##  1 10970180147  245709500   2019-04-09 22:00:52 2019-04-09 22:01:59
##  2 10970192077  245709500   2019-04-09 22:07:14 2019-04-09 22:09:46
##  3 10970285008  245709500   2019-04-09 23:11:45 2019-04-09 23:12:31
##  4 10970920112  245715358   2019-05-09 06:42:04 2019-05-09 06:42:40
##  5 10971077610  245709500   2019-05-09 07:57:59 2019-05-09 07:58:41
##  6 10971094944  245709500   2019-05-09 08:05:00 2019-05-09 08:05:40
##  7 10971112419  245709500   2019-05-09 08:11:36 2019-05-09 08:12:32
##  8 10971157469  245709500   2019-05-09 08:29:44 2019-05-09 08:30:27
##  9 10971160987  245709500   2019-05-09 08:31:02 2019-05-09 08:31:52
## 10 10971322807  245715358   2019-05-09 09:30:08 2019-05-09 09:30:50
## #  with 11 more rows, and 8 more variables: SpidermanFarFromHome <ord>,
## #   HobbsAndShaw <ord>, LionKing2019 <ord>, AnnabelleComeHome <ord>,
## #   ToyStory4 <ord>, MetersDown47 <ord>, Gender <fct>, Age <ord>
…
